Pacuraru;Marcel;1981202890876;ASISTENT;2000
Dumitrescu;Razvan;1961202789087;LECTURER;2500
Ionescu;Vlad;1991202890876;LECTURER;2000
Pacea;Larisa;2961202789087;ASISTENT;3500
Georgescu;Flavius;2961202890876;TEACHER;4500
Puscas;Laura;0961224890876;TEACHER;2500
Radaut;George;1961121369830;ASISTENT;2500
Popovici;Petcu;1961203202020;ASISTENT;2500
Manciu;Martinel;1961102020202;ASISTENT;1500
Laslo;Ford;1234567894321;LECTURER;2500
Radulescu;Flavius;1941102123456;LECTURER;6000
